ISO-10303-21;
HEADER;
/* Generated by software containing ST-Developer
 * from STEP Tools, Inc. (www.steptools.com) 
 */

FILE_DESCRIPTION(
/* description */ (''),
/* implementation_level */ '2;1');

FILE_NAME(
/* name */ 
'D:/3DPrinter/Models/LayerFused/X301-Models/STEP/Mainboard Mount.step',

/* time_stamp */ '2020-06-08T20:53:21-05:00',
/* author */ (''),
/* organization */ (''),
/* preprocessor_version */ 'ST-DEVELOPER v18.1',
/* originating_system */ 'Autodesk Translation Framework v9.3.0.1241',
/* authorisation */ '');

FILE_SCHEMA (('AUTOMOTIVE_DESIGN { 1 0 10303 214 3 1 1 }'));
ENDSEC;

DATA;
#10=MECHANICAL_DESIGN_GEOMETRIC_PRESENTATION_REPRESENTATION('',(#13,#14,
#15,#16,#17),#1333);
#11=SHAPE_REPRESENTATION_RELATIONSHIP('SRR','None',#1340,#12);
#12=ADVANCED_BREP_SHAPE_REPRESENTATION('',(#18,#19,#20,#21,#22),#1332);
#13=STYLED_ITEM('',(#1349),#18);
#14=STYLED_ITEM('',(#1349),#19);
#15=STYLED_ITEM('',(#1349),#20);
#16=STYLED_ITEM('',(#1349),#21);
#17=STYLED_ITEM('',(#1349),#22);
#18=MANIFOLD_SOLID_BREP('Body2',#805);
#19=MANIFOLD_SOLID_BREP('Body3',#806);
#20=MANIFOLD_SOLID_BREP('Body4',#807);
#21=MANIFOLD_SOLID_BREP('Body5',#808);
#22=MANIFOLD_SOLID_BREP('Body1',#809);
#23=FACE_BOUND('',#129,.T.);
#24=FACE_BOUND('',#131,.T.);
#25=FACE_BOUND('',#136,.T.);
#26=FACE_BOUND('',#138,.T.);
#27=FACE_BOUND('',#143,.T.);
#28=FACE_BOUND('',#145,.T.);
#29=FACE_BOUND('',#150,.T.);
#30=FACE_BOUND('',#152,.T.);
#31=FACE_BOUND('',#176,.T.);
#32=FACE_BOUND('',#177,.T.);
#33=FACE_BOUND('',#178,.T.);
#34=FACE_BOUND('',#179,.T.);
#35=FACE_BOUND('',#180,.T.);
#36=FACE_BOUND('',#181,.T.);
#37=FACE_BOUND('',#182,.T.);
#38=FACE_BOUND('',#183,.T.);
#39=FACE_BOUND('',#184,.T.);
#40=FACE_BOUND('',#185,.T.);
#41=FACE_BOUND('',#187,.T.);
#42=FACE_BOUND('',#188,.T.);
#43=FACE_BOUND('',#189,.T.);
#44=FACE_BOUND('',#190,.T.);
#45=FACE_BOUND('',#191,.T.);
#46=FACE_BOUND('',#192,.T.);
#47=FACE_BOUND('',#193,.T.);
#48=FACE_BOUND('',#194,.T.);
#49=FACE_BOUND('',#195,.T.);
#50=FACE_BOUND('',#196,.T.);
#51=PLANE('',#826);
#52=PLANE('',#830);
#53=PLANE('',#831);
#54=PLANE('',#835);
#55=PLANE('',#839);
#56=PLANE('',#840);
#57=PLANE('',#844);
#58=PLANE('',#848);
#59=PLANE('',#849);
#60=PLANE('',#853);
#61=PLANE('',#857);
#62=PLANE('',#858);
#63=PLANE('',#871);
#64=PLANE('',#872);
#65=PLANE('',#873);
#66=PLANE('',#874);
#67=PLANE('',#875);
#68=PLANE('',#876);
#69=PLANE('',#880);
#70=PLANE('',#881);
#71=PLANE('',#882);
#72=PLANE('',#883);
#73=PLANE('',#884);
#74=PLANE('',#885);
#75=PLANE('',#889);
#76=PLANE('',#890);
#77=PLANE('',#891);
#78=PLANE('',#892);
#79=PLANE('',#893);
#80=PLANE('',#894);
#81=FACE_OUTER_BOUND('',#125,.T.);
#82=FACE_OUTER_BOUND('',#126,.T.);
#83=FACE_OUTER_BOUND('',#127,.T.);
#84=FACE_OUTER_BOUND('',#128,.T.);
#85=FACE_OUTER_BOUND('',#130,.T.);
#86=FACE_OUTER_BOUND('',#132,.T.);
#87=FACE_OUTER_BOUND('',#133,.T.);
#88=FACE_OUTER_BOUND('',#134,.T.);
#89=FACE_OUTER_BOUND('',#135,.T.);
#90=FACE_OUTER_BOUND('',#137,.T.);
#91=FACE_OUTER_BOUND('',#139,.T.);
#92=FACE_OUTER_BOUND('',#140,.T.);
#93=FACE_OUTER_BOUND('',#141,.T.);
#94=FACE_OUTER_BOUND('',#142,.T.);
#95=FACE_OUTER_BOUND('',#144,.T.);
#96=FACE_OUTER_BOUND('',#146,.T.);
#97=FACE_OUTER_BOUND('',#147,.T.);
#98=FACE_OUTER_BOUND('',#148,.T.);
#99=FACE_OUTER_BOUND('',#149,.T.);
#100=FACE_OUTER_BOUND('',#151,.T.);
#101=FACE_OUTER_BOUND('',#153,.T.);
#102=FACE_OUTER_BOUND('',#154,.T.);
#103=FACE_OUTER_BOUND('',#155,.T.);
#104=FACE_OUTER_BOUND('',#156,.T.);
#105=FACE_OUTER_BOUND('',#157,.T.);
#106=FACE_OUTER_BOUND('',#158,.T.);
#107=FACE_OUTER_BOUND('',#159,.T.);
#108=FACE_OUTER_BOUND('',#160,.T.);
#109=FACE_OUTER_BOUND('',#161,.T.);
#110=FACE_OUTER_BOUND('',#162,.T.);
#111=FACE_OUTER_BOUND('',#163,.T.);
#112=FACE_OUTER_BOUND('',#164,.T.);
#113=FACE_OUTER_BOUND('',#165,.T.);
#114=FACE_OUTER_BOUND('',#166,.T.);
#115=FACE_OUTER_BOUND('',#167,.T.);
#116=FACE_OUTER_BOUND('',#168,.T.);
#117=FACE_OUTER_BOUND('',#169,.T.);
#118=FACE_OUTER_BOUND('',#170,.T.);
#119=FACE_OUTER_BOUND('',#171,.T.);
#120=FACE_OUTER_BOUND('',#172,.T.);
#121=FACE_OUTER_BOUND('',#173,.T.);
#122=FACE_OUTER_BOUND('',#174,.T.);
#123=FACE_OUTER_BOUND('',#175,.T.);
#124=FACE_OUTER_BOUND('',#186,.T.);
#125=EDGE_LOOP('',(#543,#544,#545,#546));
#126=EDGE_LOOP('',(#547,#548,#549,#550));
#127=EDGE_LOOP('',(#551,#552,#553,#554));
#128=EDGE_LOOP('',(#555,#556));
#129=EDGE_LOOP('',(#557));
#130=EDGE_LOOP('',(#558,#559));
#131=EDGE_LOOP('',(#560));
#132=EDGE_LOOP('',(#561,#562,#563,#564));
#133=EDGE_LOOP('',(#565,#566,#567,#568));
#134=EDGE_LOOP('',(#569,#570,#571,#572));
#135=EDGE_LOOP('',(#573,#574));
#136=EDGE_LOOP('',(#575));
#137=EDGE_LOOP('',(#576,#577));
#138=EDGE_LOOP('',(#578));
#139=EDGE_LOOP('',(#579,#580,#581,#582));
#140=EDGE_LOOP('',(#583,#584,#585,#586));
#141=EDGE_LOOP('',(#587,#588,#589,#590));
#142=EDGE_LOOP('',(#591,#592));
#143=EDGE_LOOP('',(#593));
#144=EDGE_LOOP('',(#594,#595));
#145=EDGE_LOOP('',(#596));
#146=EDGE_LOOP('',(#597,#598,#599,#600));
#147=EDGE_LOOP('',(#601,#602,#603,#604));
#148=EDGE_LOOP('',(#605,#606,#607,#608));
#149=EDGE_LOOP('',(#609,#610));
#150=EDGE_LOOP('',(#611));
#151=EDGE_LOOP('',(#612,#613));
#152=EDGE_LOOP('',(#614));
#153=EDGE_LOOP('',(#615,#616,#617,#618));
#154=EDGE_LOOP('',(#619,#620,#621,#622));
#155=EDGE_LOOP('',(#623,#624,#625,#626));
#156=EDGE_LOOP('',(#627,#628,#629,#630));
#157=EDGE_LOOP('',(#631,#632,#633,#634));
#158=EDGE_LOOP('',(#635,#636,#637,#638));
#159=EDGE_LOOP('',(#639,#640,#641,#642));
#160=EDGE_LOOP('',(#643,#644,#645,#646));
#161=EDGE_LOOP('',(#647,#648,#649,#650));
#162=EDGE_LOOP('',(#651,#652,#653,#654));
#163=EDGE_LOOP('',(#655,#656,#657,#658));
#164=EDGE_LOOP('',(#659,#660,#661,#662));
#165=EDGE_LOOP('',(#663,#664,#665,#666));
#166=EDGE_LOOP('',(#667,#668,#669,#670));
#167=EDGE_LOOP('',(#671,#672,#673,#674));
#168=EDGE_LOOP('',(#675,#676,#677,#678));
#169=EDGE_LOOP('',(#679,#680,#681,#682));
#170=EDGE_LOOP('',(#683,#684,#685,#686));
#171=EDGE_LOOP('',(#687,#688,#689,#690));
#172=EDGE_LOOP('',(#691,#692,#693,#694));
#173=EDGE_LOOP('',(#695,#696,#697,#698));
#174=EDGE_LOOP('',(#699,#700,#701,#702));
#175=EDGE_LOOP('',(#703,#704,#705,#706));
#176=EDGE_LOOP('',(#707));
#177=EDGE_LOOP('',(#708));
#178=EDGE_LOOP('',(#709));
#179=EDGE_LOOP('',(#710,#711,#712));
#180=EDGE_LOOP('',(#713,#714,#715));
#181=EDGE_LOOP('',(#716));
#182=EDGE_LOOP('',(#717,#718,#719));
#183=EDGE_LOOP('',(#720,#721,#722));
#184=EDGE_LOOP('',(#723));
#185=EDGE_LOOP('',(#724));
#186=EDGE_LOOP('',(#725,#726,#727,#728));
#187=EDGE_LOOP('',(#729));
#188=EDGE_LOOP('',(#730));
#189=EDGE_LOOP('',(#731));
#190=EDGE_LOOP('',(#732,#733,#734));
#191=EDGE_LOOP('',(#735,#736,#737));
#192=EDGE_LOOP('',(#738));
#193=EDGE_LOOP('',(#739,#740,#741));
#194=EDGE_LOOP('',(#742,#743,#744));
#195=EDGE_LOOP('',(#745));
#196=EDGE_LOOP('',(#746));
#197=LINE('',#1120,#271);
#198=LINE('',#1125,#272);
#199=LINE('',#1127,#273);
#200=LINE('',#1129,#274);
#201=LINE('',#1130,#275);
#202=LINE('',#1140,#276);
#203=LINE('',#1145,#277);
#204=LINE('',#1147,#278);
#205=LINE('',#1149,#279);
#206=LINE('',#1150,#280);
#207=LINE('',#1160,#281);
#208=LINE('',#1165,#282);
#209=LINE('',#1167,#283);
#210=LINE('',#1169,#284);
#211=LINE('',#1170,#285);
#212=LINE('',#1180,#286);
#213=LINE('',#1185,#287);
#214=LINE('',#1187,#288);
#215=LINE('',#1189,#289);
#216=LINE('',#1190,#290);
#217=LINE('',#1200,#291);
#218=LINE('',#1206,#292);
#219=LINE('',#1212,#293);
#220=LINE('',#1218,#294);
#221=LINE('',#1223,#295);
#222=LINE('',#1225,#296);
#223=LINE('',#1227,#297);
#224=LINE('',#1228,#298);
#225=LINE('',#1231,#299);
#226=LINE('',#1233,#300);
#227=LINE('',#1234,#301);
#228=LINE('',#1236,#302);
#229=LINE('',#1237,#303);
#230=LINE('',#1241,#304);
#231=LINE('',#1243,#305);
#232=LINE('',#1245,#306);
#233=LINE('',#1246,#307);
#234=LINE('',#1249,#308);
#235=LINE('',#1251,#309);
#236=LINE('',#1252,#310);
#237=LINE('',#1254,#311);
#238=LINE('',#1255,#312);
#239=LINE('',#1260,#313);
#240=LINE('',#1265,#314);
#241=LINE('',#1267,#315);
#242=LINE('',#1269,#316);
#243=LINE('',#1270,#317);
#244=LINE('',#1273,#318);
#245=LINE('',#1275,#319);
#246=LINE('',#1276,#320);
#247=LINE('',#1278,#321);
#248=LINE('',#1279,#322);
#249=LINE('',#1283,#323);
#250=LINE('',#1285,#324);
#251=LINE('',#1287,#325);
#252=LINE('',#1288,#326);
#253=LINE('',#1291,#327);
#254=LINE('',#1293,#328);
#255=LINE('',#1294,#329);
#256=LINE('',#1296,#330);
#257=LINE('',#1297,#331);
#258=LINE('',#1302,#332);
#259=LINE('',#1307,#333);
#260=LINE('',#1309,#334);
#261=LINE('',#1311,#335);
#262=LINE('',#1312,#336);
#263=LINE('',#1315,#337);
#264=LINE('',#1317,#338);
#265=LINE('',#1318,#339);
#266=LINE('',#1321,#340);
#267=LINE('',#1323,#341);
#268=LINE('',#1324,#342);
#269=LINE('',#1326,#343);
#270=LINE('',#1327,#344);
#271=VECTOR('',#901,1.4);
#272=VECTOR('',#906,10.);
#273=VECTOR('',#907,10.);
#274=VECTOR('',#908,10.);
#275=VECTOR('',#909,10.);
#276=VECTOR('',#924,1.4);
#277=VECTOR('',#929,10.);
#278=VECTOR('',#930,10.);
#279=VECTOR('',#931,10.);
#280=VECTOR('',#932,10.);
#281=VECTOR('',#947,1.4);
#282=VECTOR('',#952,10.);
#283=VECTOR('',#953,10.);
#284=VECTOR('',#954,10.);
#285=VECTOR('',#955,10.);
#286=VECTOR('',#970,1.4);
#287=VECTOR('',#975,10.);
#288=VECTOR('',#976,10.);
#289=VECTOR('',#977,10.);
#290=VECTOR('',#978,10.);
#291=VECTOR('',#993,1.75);
#292=VECTOR('',#1000,1.75);
#293=VECTOR('',#1007,1.4);
#294=VECTOR('',#1014,1.4);
#295=VECTOR('',#1019,10.);
#296=VECTOR('',#1020,10.);
#297=VECTOR('',#1021,10.);
#298=VECTOR('',#1022,10.);
#299=VECTOR('',#1025,10.);
#300=VECTOR('',#1026,10.);
#301=VECTOR('',#1027,10.);
#302=VECTOR('',#1030,10.);
#303=VECTOR('',#1031,10.);
#304=VECTOR('',#1034,10.);
#305=VECTOR('',#1035,10.);
#306=VECTOR('',#1036,10.);
#307=VECTOR('',#1037,10.);
#308=VECTOR('',#1040,10.);
#309=VECTOR('',#1041,10.);
#310=VECTOR('',#1042,10.);
#311=VECTOR('',#1045,10.);
#312=VECTOR('',#1046,10.);
#313=VECTOR('',#1051,1.4);
#314=VECTOR('',#1056,10.);
#315=VECTOR('',#1057,10.);
#316=VECTOR('',#1058,10.);
#317=VECTOR('',#1059,10.);
#318=VECTOR('',#1062,10.);
#319=VECTOR('',#1063,10.);
#320=VECTOR('',#1064,10.);
#321=VECTOR('',#1067,10.);
#322=VECTOR('',#1068,10.);
#323=VECTOR('',#1071,10.);
#324=VECTOR('',#1072,10.);
#325=VECTOR('',#1073,10.);
#326=VECTOR('',#1074,10.);
#327=VECTOR('',#1077,10.);
#328=VECTOR('',#1078,10.);
#329=VECTOR('',#1079,10.);
#330=VECTOR('',#1082,10.);
#331=VECTOR('',#1083,10.);
#332=VECTOR('',#1088,1.4);
#333=VECTOR('',#1093,10.);
#334=VECTOR('',#1094,10.);
#335=VECTOR('',#1095,10.);
#336=VECTOR('',#1096,10.);
#337=VECTOR('',#1099,10.);
#338=VECTOR('',#1100,10.);
#339=VECTOR('',#1101,10.);
#340=VECTOR('',#1104,10.);
#341=VECTOR('',#1105,10.);
#342=VECTOR('',#1106,10.);
#343=VECTOR('',#1109,10.);
#344=VECTOR('',#1110,10.);
#345=CIRCLE('',#824,1.4);
#346=CIRCLE('',#825,1.4);
#347=CIRCLE('',#828,3.99999999999999);
#348=CIRCLE('',#829,3.99999999999999);
#349=CIRCLE('',#833,1.4);
#350=CIRCLE('',#834,1.4);
#351=CIRCLE('',#837,3.99999999999999);
#352=CIRCLE('',#838,3.99999999999999);
#353=CIRCLE('',#842,1.4);
#354=CIRCLE('',#843,1.4);
#355=CIRCLE('',#846,3.99999999999999);
#356=CIRCLE('',#847,3.99999999999999);
#357=CIRCLE('',#851,1.4);
#358=CIRCLE('',#852,1.4);
#359=CIRCLE('',#855,4.);
#360=CIRCLE('',#856,4.);
#361=CIRCLE('',#860,1.75);
#362=CIRCLE('',#861,1.75);
#363=CIRCLE('',#863,1.75);
#364=CIRCLE('',#864,1.75);
#365=CIRCLE('',#866,1.4);
#366=CIRCLE('',#867,1.4);
#367=CIRCLE('',#869,1.4);
#368=CIRCLE('',#870,1.4);
#369=CIRCLE('',#878,1.4);
#370=CIRCLE('',#879,1.4);
#371=CIRCLE('',#887,1.4);
#372=CIRCLE('',#888,1.4);
#373=VERTEX_POINT('',#1117);
#374=VERTEX_POINT('',#1119);
#375=VERTEX_POINT('',#1123);
#376=VERTEX_POINT('',#1124);
#377=VERTEX_POINT('',#1126);
#378=VERTEX_POINT('',#1128);
#379=VERTEX_POINT('',#1137);
#380=VERTEX_POINT('',#1139);
#381=VERTEX_POINT('',#1143);
#382=VERTEX_POINT('',#1144);
#383=VERTEX_POINT('',#1146);
#384=VERTEX_POINT('',#1148);
#385=VERTEX_POINT('',#1157);
#386=VERTEX_POINT('',#1159);
#387=VERTEX_POINT('',#1163);
#388=VERTEX_POINT('',#1164);
#389=VERTEX_POINT('',#1166);
#390=VERTEX_POINT('',#1168);
#391=VERTEX_POINT('',#1177);
#392=VERTEX_POINT('',#1179);
#393=VERTEX_POINT('',#1183);
#394=VERTEX_POINT('',#1184);
#395=VERTEX_POINT('',#1186);
#396=VERTEX_POINT('',#1188);
#397=VERTEX_POINT('',#1197);
#398=VERTEX_POINT('',#1199);
#399=VERTEX_POINT('',#1203);
#400=VERTEX_POINT('',#1205);
#401=VERTEX_POINT('',#1209);
#402=VERTEX_POINT('',#1211);
#403=VERTEX_POINT('',#1215);
#404=VERTEX_POINT('',#1217);
#405=VERTEX_POINT('',#1221);
#406=VERTEX_POINT('',#1222);
#407=VERTEX_POINT('',#1224);
#408=VERTEX_POINT('',#1226);
#409=VERTEX_POINT('',#1230);
#410=VERTEX_POINT('',#1232);
#411=VERTEX_POINT('',#1239);
#412=VERTEX_POINT('',#1240);
#413=VERTEX_POINT('',#1242);
#414=VERTEX_POINT('',#1244);
#415=VERTEX_POINT('',#1248);
#416=VERTEX_POINT('',#1250);
#417=VERTEX_POINT('',#1257);
#418=VERTEX_POINT('',#1259);
#419=VERTEX_POINT('',#1263);
#420=VERTEX_POINT('',#1264);
#421=VERTEX_POINT('',#1266);
#422=VERTEX_POINT('',#1268);
#423=VERTEX_POINT('',#1272);
#424=VERTEX_POINT('',#1274);
#425=VERTEX_POINT('',#1281);
#426=VERTEX_POINT('',#1282);
#427=VERTEX_POINT('',#1284);
#428=VERTEX_POINT('',#1286);
#429=VERTEX_POINT('',#1290);
#430=VERTEX_POINT('',#1292);
#431=VERTEX_POINT('',#1299);
#432=VERTEX_POINT('',#1301);
#433=VERTEX_POINT('',#1305);
#434=VERTEX_POINT('',#1306);
#435=VERTEX_POINT('',#1308);
#436=VERTEX_POINT('',#1310);
#437=VERTEX_POINT('',#1314);
#438=VERTEX_POINT('',#1316);
#439=VERTEX_POINT('',#1320);
#440=VERTEX_POINT('',#1322);
#441=EDGE_CURVE('',#373,#373,#345,.T.);
#442=EDGE_CURVE('',#373,#374,#197,.T.);
#443=EDGE_CURVE('',#374,#374,#346,.T.);
#444=EDGE_CURVE('',#375,#376,#198,.T.);
#445=EDGE_CURVE('',#375,#377,#199,.T.);
#446=EDGE_CURVE('',#378,#377,#200,.T.);
#447=EDGE_CURVE('',#376,#378,#201,.T.);
#448=EDGE_CURVE('',#375,#376,#347,.T.);
#449=EDGE_CURVE('',#377,#378,#348,.T.);
#450=EDGE_CURVE('',#379,#379,#349,.T.);
#451=EDGE_CURVE('',#379,#380,#202,.T.);
#452=EDGE_CURVE('',#380,#380,#350,.T.);
#453=EDGE_CURVE('',#381,#382,#203,.T.);
#454=EDGE_CURVE('',#381,#383,#204,.T.);
#455=EDGE_CURVE('',#384,#383,#205,.T.);
#456=EDGE_CURVE('',#382,#384,#206,.T.);
#457=EDGE_CURVE('',#381,#382,#351,.T.);
#458=EDGE_CURVE('',#383,#384,#352,.T.);
#459=EDGE_CURVE('',#385,#385,#353,.T.);
#460=EDGE_CURVE('',#385,#386,#207,.T.);
#461=EDGE_CURVE('',#386,#386,#354,.T.);
#462=EDGE_CURVE('',#387,#388,#208,.T.);
#463=EDGE_CURVE('',#387,#389,#209,.T.);
#464=EDGE_CURVE('',#390,#389,#210,.T.);
#465=EDGE_CURVE('',#388,#390,#211,.T.);
#466=EDGE_CURVE('',#387,#388,#355,.T.);
#467=EDGE_CURVE('',#389,#390,#356,.T.);
#468=EDGE_CURVE('',#391,#391,#357,.T.);
#469=EDGE_CURVE('',#391,#392,#212,.T.);
#470=EDGE_CURVE('',#392,#392,#358,.T.);
#471=EDGE_CURVE('',#393,#394,#213,.T.);
#472=EDGE_CURVE('',#393,#395,#214,.T.);
#473=EDGE_CURVE('',#396,#395,#215,.T.);
#474=EDGE_CURVE('',#394,#396,#216,.T.);
#475=EDGE_CURVE('',#393,#394,#359,.T.);
#476=EDGE_CURVE('',#395,#396,#360,.T.);
#477=EDGE_CURVE('',#397,#397,#361,.T.);
#478=EDGE_CURVE('',#397,#398,#217,.T.);
#479=EDGE_CURVE('',#398,#398,#362,.T.);
#480=EDGE_CURVE('',#399,#399,#363,.T.);
#481=EDGE_CURVE('',#399,#400,#218,.T.);
#482=EDGE_CURVE('',#400,#400,#364,.T.);
#483=EDGE_CURVE('',#401,#401,#365,.T.);
#484=EDGE_CURVE('',#401,#402,#219,.T.);
#485=EDGE_CURVE('',#402,#402,#366,.T.);
#486=EDGE_CURVE('',#403,#403,#367,.T.);
#487=EDGE_CURVE('',#403,#404,#220,.T.);
#488=EDGE_CURVE('',#404,#404,#368,.T.);
#489=EDGE_CURVE('',#405,#406,#221,.T.);
#490=EDGE_CURVE('',#406,#407,#222,.T.);
#491=EDGE_CURVE('',#408,#407,#223,.T.);
#492=EDGE_CURVE('',#405,#408,#224,.T.);
#493=EDGE_CURVE('',#409,#405,#225,.T.);
#494=EDGE_CURVE('',#410,#408,#226,.T.);
#495=EDGE_CURVE('',#409,#410,#227,.T.);
#496=EDGE_CURVE('',#406,#409,#228,.T.);
#497=EDGE_CURVE('',#407,#410,#229,.T.);
#498=EDGE_CURVE('',#411,#412,#230,.T.);
#499=EDGE_CURVE('',#412,#413,#231,.T.);
#500=EDGE_CURVE('',#414,#413,#232,.T.);
#501=EDGE_CURVE('',#411,#414,#233,.T.);
#502=EDGE_CURVE('',#415,#411,#234,.T.);
#503=EDGE_CURVE('',#416,#414,#235,.T.);
#504=EDGE_CURVE('',#415,#416,#236,.T.);
#505=EDGE_CURVE('',#412,#415,#237,.T.);
#506=EDGE_CURVE('',#413,#416,#238,.T.);
#507=EDGE_CURVE('',#417,#417,#369,.T.);
#508=EDGE_CURVE('',#417,#418,#239,.T.);
#509=EDGE_CURVE('',#418,#418,#370,.T.);
#510=EDGE_CURVE('',#419,#420,#240,.T.);
#511=EDGE_CURVE('',#420,#421,#241,.T.);
#512=EDGE_CURVE('',#422,#421,#242,.T.);
#513=EDGE_CURVE('',#419,#422,#243,.T.);
#514=EDGE_CURVE('',#423,#419,#244,.T.);
#515=EDGE_CURVE('',#424,#422,#245,.T.);
#516=EDGE_CURVE('',#423,#424,#246,.T.);
#517=EDGE_CURVE('',#420,#423,#247,.T.);
#518=EDGE_CURVE('',#421,#424,#248,.T.);
#519=EDGE_CURVE('',#425,#426,#249,.T.);
#520=EDGE_CURVE('',#426,#427,#250,.T.);
#521=EDGE_CURVE('',#428,#427,#251,.T.);
#522=EDGE_CURVE('',#425,#428,#252,.T.);
#523=EDGE_CURVE('',#429,#425,#253,.T.);
#524=EDGE_CURVE('',#430,#428,#254,.T.);
#525=EDGE_CURVE('',#429,#430,#255,.T.);
#526=EDGE_CURVE('',#426,#429,#256,.T.);
#527=EDGE_CURVE('',#427,#430,#257,.T.);
#528=EDGE_CURVE('',#431,#431,#371,.T.);
#529=EDGE_CURVE('',#431,#432,#258,.T.);
#530=EDGE_CURVE('',#432,#432,#372,.T.);
#531=EDGE_CURVE('',#433,#434,#259,.T.);
#532=EDGE_CURVE('',#433,#435,#260,.T.);
#533=EDGE_CURVE('',#436,#435,#261,.T.);
#534=EDGE_CURVE('',#434,#436,#262,.T.);
#535=EDGE_CURVE('',#434,#437,#263,.T.);
#536=EDGE_CURVE('',#438,#436,#264,.T.);
#537=EDGE_CURVE('',#437,#438,#265,.T.);
#538=EDGE_CURVE('',#437,#439,#266,.T.);
#539=EDGE_CURVE('',#440,#438,#267,.T.);
#540=EDGE_CURVE('',#439,#440,#268,.T.);
#541=EDGE_CURVE('',#439,#433,#269,.T.);
#542=EDGE_CURVE('',#435,#440,#270,.T.);
#543=ORIENTED_EDGE('',*,*,#441,.F.);
#544=ORIENTED_EDGE('',*,*,#442,.T.);
#545=ORIENTED_EDGE('',*,*,#443,.T.);
#546=ORIENTED_EDGE('',*,*,#442,.F.);
#547=ORIENTED_EDGE('',*,*,#444,.F.);
#548=ORIENTED_EDGE('',*,*,#445,.T.);
#549=ORIENTED_EDGE('',*,*,#446,.F.);
#550=ORIENTED_EDGE('',*,*,#447,.F.);
#551=ORIENTED_EDGE('',*,*,#448,.T.);
#552=ORIENTED_EDGE('',*,*,#447,.T.);
#553=ORIENTED_EDGE('',*,*,#449,.F.);
#554=ORIENTED_EDGE('',*,*,#445,.F.);
#555=ORIENTED_EDGE('',*,*,#449,.T.);
#556=ORIENTED_EDGE('',*,*,#446,.T.);
#557=ORIENTED_EDGE('',*,*,#441,.T.);
#558=ORIENTED_EDGE('',*,*,#448,.F.);
#559=ORIENTED_EDGE('',*,*,#444,.T.);
#560=ORIENTED_EDGE('',*,*,#443,.F.);
#561=ORIENTED_EDGE('',*,*,#450,.F.);
#562=ORIENTED_EDGE('',*,*,#451,.T.);
#563=ORIENTED_EDGE('',*,*,#452,.T.);
#564=ORIENTED_EDGE('',*,*,#451,.F.);
#565=ORIENTED_EDGE('',*,*,#453,.F.);
#566=ORIENTED_EDGE('',*,*,#454,.T.);
#567=ORIENTED_EDGE('',*,*,#455,.F.);
#568=ORIENTED_EDGE('',*,*,#456,.F.);
#569=ORIENTED_EDGE('',*,*,#457,.T.);
#570=ORIENTED_EDGE('',*,*,#456,.T.);
#571=ORIENTED_EDGE('',*,*,#458,.F.);
#572=ORIENTED_EDGE('',*,*,#454,.F.);
#573=ORIENTED_EDGE('',*,*,#458,.T.);
#574=ORIENTED_EDGE('',*,*,#455,.T.);
#575=ORIENTED_EDGE('',*,*,#450,.T.);
#576=ORIENTED_EDGE('',*,*,#457,.F.);
#577=ORIENTED_EDGE('',*,*,#453,.T.);
#578=ORIENTED_EDGE('',*,*,#452,.F.);
#579=ORIENTED_EDGE('',*,*,#459,.F.);
#580=ORIENTED_EDGE('',*,*,#460,.T.);
#581=ORIENTED_EDGE('',*,*,#461,.T.);
#582=ORIENTED_EDGE('',*,*,#460,.F.);
#583=ORIENTED_EDGE('',*,*,#462,.F.);
#584=ORIENTED_EDGE('',*,*,#463,.T.);
#585=ORIENTED_EDGE('',*,*,#464,.F.);
#586=ORIENTED_EDGE('',*,*,#465,.F.);
#587=ORIENTED_EDGE('',*,*,#466,.T.);
#588=ORIENTED_EDGE('',*,*,#465,.T.);
#589=ORIENTED_EDGE('',*,*,#467,.F.);
#590=ORIENTED_EDGE('',*,*,#463,.F.);
#591=ORIENTED_EDGE('',*,*,#467,.T.);
#592=ORIENTED_EDGE('',*,*,#464,.T.);
#593=ORIENTED_EDGE('',*,*,#459,.T.);
#594=ORIENTED_EDGE('',*,*,#466,.F.);
#595=ORIENTED_EDGE('',*,*,#462,.T.);
#596=ORIENTED_EDGE('',*,*,#461,.F.);
#597=ORIENTED_EDGE('',*,*,#468,.F.);
#598=ORIENTED_EDGE('',*,*,#469,.T.);
#599=ORIENTED_EDGE('',*,*,#470,.T.);
#600=ORIENTED_EDGE('',*,*,#469,.F.);
#601=ORIENTED_EDGE('',*,*,#471,.F.);
#602=ORIENTED_EDGE('',*,*,#472,.T.);
#603=ORIENTED_EDGE('',*,*,#473,.F.);
#604=ORIENTED_EDGE('',*,*,#474,.F.);
#605=ORIENTED_EDGE('',*,*,#475,.T.);
#606=ORIENTED_EDGE('',*,*,#474,.T.);
#607=ORIENTED_EDGE('',*,*,#476,.F.);
#608=ORIENTED_EDGE('',*,*,#472,.F.);
#609=ORIENTED_EDGE('',*,*,#476,.T.);
#610=ORIENTED_EDGE('',*,*,#473,.T.);
#611=ORIENTED_EDGE('',*,*,#468,.T.);
#612=ORIENTED_EDGE('',*,*,#475,.F.);
#613=ORIENTED_EDGE('',*,*,#471,.T.);
#614=ORIENTED_EDGE('',*,*,#470,.F.);
#615=ORIENTED_EDGE('',*,*,#477,.F.);
#616=ORIENTED_EDGE('',*,*,#478,.T.);
#617=ORIENTED_EDGE('',*,*,#479,.F.);
#618=ORIENTED_EDGE('',*,*,#478,.F.);
#619=ORIENTED_EDGE('',*,*,#480,.F.);
#620=ORIENTED_EDGE('',*,*,#481,.T.);
#621=ORIENTED_EDGE('',*,*,#482,.F.);
#622=ORIENTED_EDGE('',*,*,#481,.F.);
#623=ORIENTED_EDGE('',*,*,#483,.F.);
#624=ORIENTED_EDGE('',*,*,#484,.T.);
#625=ORIENTED_EDGE('',*,*,#485,.T.);
#626=ORIENTED_EDGE('',*,*,#484,.F.);
#627=ORIENTED_EDGE('',*,*,#486,.F.);
#628=ORIENTED_EDGE('',*,*,#487,.T.);
#629=ORIENTED_EDGE('',*,*,#488,.T.);
#630=ORIENTED_EDGE('',*,*,#487,.F.);
#631=ORIENTED_EDGE('',*,*,#489,.T.);
#632=ORIENTED_EDGE('',*,*,#490,.T.);
#633=ORIENTED_EDGE('',*,*,#491,.F.);
#634=ORIENTED_EDGE('',*,*,#492,.F.);
#635=ORIENTED_EDGE('',*,*,#493,.T.);
#636=ORIENTED_EDGE('',*,*,#492,.T.);
#637=ORIENTED_EDGE('',*,*,#494,.F.);
#638=ORIENTED_EDGE('',*,*,#495,.F.);
#639=ORIENTED_EDGE('',*,*,#496,.T.);
#640=ORIENTED_EDGE('',*,*,#495,.T.);
#641=ORIENTED_EDGE('',*,*,#497,.F.);
#642=ORIENTED_EDGE('',*,*,#490,.F.);
#643=ORIENTED_EDGE('',*,*,#498,.T.);
#644=ORIENTED_EDGE('',*,*,#499,.T.);
#645=ORIENTED_EDGE('',*,*,#500,.F.);
#646=ORIENTED_EDGE('',*,*,#501,.F.);
#647=ORIENTED_EDGE('',*,*,#502,.T.);
#648=ORIENTED_EDGE('',*,*,#501,.T.);
#649=ORIENTED_EDGE('',*,*,#503,.F.);
#650=ORIENTED_EDGE('',*,*,#504,.F.);
#651=ORIENTED_EDGE('',*,*,#505,.T.);
#652=ORIENTED_EDGE('',*,*,#504,.T.);
#653=ORIENTED_EDGE('',*,*,#506,.F.);
#654=ORIENTED_EDGE('',*,*,#499,.F.);
#655=ORIENTED_EDGE('',*,*,#507,.F.);
#656=ORIENTED_EDGE('',*,*,#508,.T.);
#657=ORIENTED_EDGE('',*,*,#509,.T.);
#658=ORIENTED_EDGE('',*,*,#508,.F.);
#659=ORIENTED_EDGE('',*,*,#510,.T.);
#660=ORIENTED_EDGE('',*,*,#511,.T.);
#661=ORIENTED_EDGE('',*,*,#512,.F.);
#662=ORIENTED_EDGE('',*,*,#513,.F.);
#663=ORIENTED_EDGE('',*,*,#514,.T.);
#664=ORIENTED_EDGE('',*,*,#513,.T.);
#665=ORIENTED_EDGE('',*,*,#515,.F.);
#666=ORIENTED_EDGE('',*,*,#516,.F.);
#667=ORIENTED_EDGE('',*,*,#517,.T.);
#668=ORIENTED_EDGE('',*,*,#516,.T.);
#669=ORIENTED_EDGE('',*,*,#518,.F.);
#670=ORIENTED_EDGE('',*,*,#511,.F.);
#671=ORIENTED_EDGE('',*,*,#519,.T.);
#672=ORIENTED_EDGE('',*,*,#520,.T.);
#673=ORIENTED_EDGE('',*,*,#521,.F.);
#674=ORIENTED_EDGE('',*,*,#522,.F.);
#675=ORIENTED_EDGE('',*,*,#523,.T.);
#676=ORIENTED_EDGE('',*,*,#522,.T.);
#677=ORIENTED_EDGE('',*,*,#524,.F.);
#678=ORIENTED_EDGE('',*,*,#525,.F.);
#679=ORIENTED_EDGE('',*,*,#526,.T.);
#680=ORIENTED_EDGE('',*,*,#525,.T.);
#681=ORIENTED_EDGE('',*,*,#527,.F.);
#682=ORIENTED_EDGE('',*,*,#520,.F.);
#683=ORIENTED_EDGE('',*,*,#528,.F.);
#684=ORIENTED_EDGE('',*,*,#529,.T.);
#685=ORIENTED_EDGE('',*,*,#530,.T.);
#686=ORIENTED_EDGE('',*,*,#529,.F.);
#687=ORIENTED_EDGE('',*,*,#531,.F.);
#688=ORIENTED_EDGE('',*,*,#532,.T.);
#689=ORIENTED_EDGE('',*,*,#533,.F.);
#690=ORIENTED_EDGE('',*,*,#534,.F.);
#691=ORIENTED_EDGE('',*,*,#535,.F.);
#692=ORIENTED_EDGE('',*,*,#534,.T.);
#693=ORIENTED_EDGE('',*,*,#536,.F.);
#694=ORIENTED_EDGE('',*,*,#537,.F.);
#695=ORIENTED_EDGE('',*,*,#538,.F.);
#696=ORIENTED_EDGE('',*,*,#537,.T.);
#697=ORIENTED_EDGE('',*,*,#539,.F.);
#698=ORIENTED_EDGE('',*,*,#540,.F.);
#699=ORIENTED_EDGE('',*,*,#541,.F.);
#700=ORIENTED_EDGE('',*,*,#540,.T.);
#701=ORIENTED_EDGE('',*,*,#542,.F.);
#702=ORIENTED_EDGE('',*,*,#532,.F.);
#703=ORIENTED_EDGE('',*,*,#542,.T.);
#704=ORIENTED_EDGE('',*,*,#539,.T.);
#705=ORIENTED_EDGE('',*,*,#536,.T.);
#706=ORIENTED_EDGE('',*,*,#533,.T.);
#707=ORIENTED_EDGE('',*,*,#479,.T.);
#708=ORIENTED_EDGE('',*,*,#482,.T.);
#709=ORIENTED_EDGE('',*,*,#528,.T.);
#710=ORIENTED_EDGE('',*,*,#527,.T.);
#711=ORIENTED_EDGE('',*,*,#524,.T.);
#712=ORIENTED_EDGE('',*,*,#521,.T.);
#713=ORIENTED_EDGE('',*,*,#518,.T.);
#714=ORIENTED_EDGE('',*,*,#515,.T.);
#715=ORIENTED_EDGE('',*,*,#512,.T.);
#716=ORIENTED_EDGE('',*,*,#507,.T.);
#717=ORIENTED_EDGE('',*,*,#506,.T.);
#718=ORIENTED_EDGE('',*,*,#503,.T.);
#719=ORIENTED_EDGE('',*,*,#500,.T.);
#720=ORIENTED_EDGE('',*,*,#497,.T.);
#721=ORIENTED_EDGE('',*,*,#494,.T.);
#722=ORIENTED_EDGE('',*,*,#491,.T.);
#723=ORIENTED_EDGE('',*,*,#486,.T.);
#724=ORIENTED_EDGE('',*,*,#483,.T.);
#725=ORIENTED_EDGE('',*,*,#541,.T.);
#726=ORIENTED_EDGE('',*,*,#531,.T.);
#727=ORIENTED_EDGE('',*,*,#535,.T.);
#728=ORIENTED_EDGE('',*,*,#538,.T.);
#729=ORIENTED_EDGE('',*,*,#477,.T.);
#730=ORIENTED_EDGE('',*,*,#480,.T.);
#731=ORIENTED_EDGE('',*,*,#530,.F.);
#732=ORIENTED_EDGE('',*,*,#526,.F.);
#733=ORIENTED_EDGE('',*,*,#519,.F.);
#734=ORIENTED_EDGE('',*,*,#523,.F.);
#735=ORIENTED_EDGE('',*,*,#517,.F.);
#736=ORIENTED_EDGE('',*,*,#510,.F.);
#737=ORIENTED_EDGE('',*,*,#514,.F.);
#738=ORIENTED_EDGE('',*,*,#509,.F.);
#739=ORIENTED_EDGE('',*,*,#505,.F.);
#740=ORIENTED_EDGE('',*,*,#498,.F.);
#741=ORIENTED_EDGE('',*,*,#502,.F.);
#742=ORIENTED_EDGE('',*,*,#496,.F.);
#743=ORIENTED_EDGE('',*,*,#489,.F.);
#744=ORIENTED_EDGE('',*,*,#493,.F.);
#745=ORIENTED_EDGE('',*,*,#488,.F.);
#746=ORIENTED_EDGE('',*,*,#485,.F.);
#747=CYLINDRICAL_SURFACE('',#823,1.4);
#748=CYLINDRICAL_SURFACE('',#827,3.99999999999999);
#749=CYLINDRICAL_SURFACE('',#832,1.4);
#750=CYLINDRICAL_SURFACE('',#836,3.99999999999999);
#751=CYLINDRICAL_SURFACE('',#841,1.4);
#752=CYLINDRICAL_SURFACE('',#845,3.99999999999999);
#753=CYLINDRICAL_SURFACE('',#850,1.4);
#754=CYLINDRICAL_SURFACE('',#854,4.);
#755=CYLINDRICAL_SURFACE('',#859,1.75);
#756=CYLINDRICAL_SURFACE('',#862,1.75);
#757=CYLINDRICAL_SURFACE('',#865,1.4);
#758=CYLINDRICAL_SURFACE('',#868,1.4);
#759=CYLINDRICAL_SURFACE('',#877,1.4);
#760=CYLINDRICAL_SURFACE('',#886,1.4);
#761=ADVANCED_FACE('',(#81),#747,.F.);
#762=ADVANCED_FACE('',(#82),#51,.T.);
#763=ADVANCED_FACE('',(#83),#748,.T.);
#764=ADVANCED_FACE('',(#84,#23),#52,.T.);
#765=ADVANCED_FACE('',(#85,#24),#53,.F.);
#766=ADVANCED_FACE('',(#86),#749,.F.);
#767=ADVANCED_FACE('',(#87),#54,.T.);
#768=ADVANCED_FACE('',(#88),#750,.T.);
#769=ADVANCED_FACE('',(#89,#25),#55,.T.);
#770=ADVANCED_FACE('',(#90,#26),#56,.F.);
#771=ADVANCED_FACE('',(#91),#751,.F.);
#772=ADVANCED_FACE('',(#92),#57,.T.);
#773=ADVANCED_FACE('',(#93),#752,.T.);
#774=ADVANCED_FACE('',(#94,#27),#58,.T.);
#775=ADVANCED_FACE('',(#95,#28),#59,.F.);
#776=ADVANCED_FACE('',(#96),#753,.F.);
#777=ADVANCED_FACE('',(#97),#60,.T.);
#778=ADVANCED_FACE('',(#98),#754,.T.);
#779=ADVANCED_FACE('',(#99,#29),#61,.T.);
#780=ADVANCED_FACE('',(#100,#30),#62,.F.);
#781=ADVANCED_FACE('',(#101),#755,.F.);
#782=ADVANCED_FACE('',(#102),#756,.F.);
#783=ADVANCED_FACE('',(#103),#757,.F.);
#784=ADVANCED_FACE('',(#104),#758,.F.);
#785=ADVANCED_FACE('',(#105),#63,.T.);
#786=ADVANCED_FACE('',(#106),#64,.T.);
#787=ADVANCED_FACE('',(#107),#65,.T.);
#788=ADVANCED_FACE('',(#108),#66,.T.);
#789=ADVANCED_FACE('',(#109),#67,.T.);
#790=ADVANCED_FACE('',(#110),#68,.T.);
#791=ADVANCED_FACE('',(#111),#759,.F.);
#792=ADVANCED_FACE('',(#112),#69,.T.);
#793=ADVANCED_FACE('',(#113),#70,.T.);
#794=ADVANCED_FACE('',(#114),#71,.T.);
#795=ADVANCED_FACE('',(#115),#72,.T.);
#796=ADVANCED_FACE('',(#116),#73,.T.);
#797=ADVANCED_FACE('',(#117),#74,.T.);
#798=ADVANCED_FACE('',(#118),#760,.F.);
#799=ADVANCED_FACE('',(#119),#75,.T.);
#800=ADVANCED_FACE('',(#120),#76,.T.);
#801=ADVANCED_FACE('',(#121),#77,.T.);
#802=ADVANCED_FACE('',(#122),#78,.T.);
#803=ADVANCED_FACE('',(#123,#31,#32,#33,#34,#35,#36,#37,#38,#39,#40),#79,
 .T.);
#804=ADVANCED_FACE('',(#124,#41,#42,#43,#44,#45,#46,#47,#48,#49,#50),#80,
 .F.);
#805=CLOSED_SHELL('',(#761,#762,#763,#764,#765));
#806=CLOSED_SHELL('',(#766,#767,#768,#769,#770));
#807=CLOSED_SHELL('',(#771,#772,#773,#774,#775));
#808=CLOSED_SHELL('',(#776,#777,#778,#779,#780));
#809=CLOSED_SHELL('',(#781,#782,#783,#784,#785,#786,#787,#788,#789,#790,
#791,#792,#793,#794,#795,#796,#797,#798,#799,#800,#801,#802,#803,#804));
#810=DERIVED_UNIT_ELEMENT(#812,1.);
#811=DERIVED_UNIT_ELEMENT(#1335,3.);
#812=(
MASS_UNIT()
NAMED_UNIT(*)
SI_UNIT(.KILO.,.GRAM.)
);
#813=DERIVED_UNIT((#810,#811));
#814=MEASURE_REPRESENTATION_ITEM('density measure',
POSITIVE_RATIO_MEASURE(7850.),#813);
#815=PROPERTY_DEFINITION_REPRESENTATION(#820,#817);
#816=PROPERTY_DEFINITION_REPRESENTATION(#821,#818);
#817=REPRESENTATION('material name',(#819),#1332);
#818=REPRESENTATION('density',(#814),#1332);
#819=DESCRIPTIVE_REPRESENTATION_ITEM('Steel','Steel');
#820=PROPERTY_DEFINITION('material property','material name',#1342);
#821=PROPERTY_DEFINITION('material property','density of part',#1342);
#822=AXIS2_PLACEMENT_3D('placement',#1115,#895,#896);
#823=AXIS2_PLACEMENT_3D('',#1116,#897,#898);
#824=AXIS2_PLACEMENT_3D('',#1118,#899,#900);
#825=AXIS2_PLACEMENT_3D('',#1121,#902,#903);
#826=AXIS2_PLACEMENT_3D('',#1122,#904,#905);
#827=AXIS2_PLACEMENT_3D('',#1131,#910,#911);
#828=AXIS2_PLACEMENT_3D('',#1132,#912,#913);
#829=AXIS2_PLACEMENT_3D('',#1133,#914,#915);
#830=AXIS2_PLACEMENT_3D('',#1134,#916,#917);
#831=AXIS2_PLACEMENT_3D('',#1135,#918,#919);
#832=AXIS2_PLACEMENT_3D('',#1136,#920,#921);
#833=AXIS2_PLACEMENT_3D('',#1138,#922,#923);
#834=AXIS2_PLACEMENT_3D('',#1141,#925,#926);
#835=AXIS2_PLACEMENT_3D('',#1142,#927,#928);
#836=AXIS2_PLACEMENT_3D('',#1151,#933,#934);
#837=AXIS2_PLACEMENT_3D('',#1152,#935,#936);
#838=AXIS2_PLACEMENT_3D('',#1153,#937,#938);
#839=AXIS2_PLACEMENT_3D('',#1154,#939,#940);
#840=AXIS2_PLACEMENT_3D('',#1155,#941,#942);
#841=AXIS2_PLACEMENT_3D('',#1156,#943,#944);
#842=AXIS2_PLACEMENT_3D('',#1158,#945,#946);
#843=AXIS2_PLACEMENT_3D('',#1161,#948,#949);
#844=AXIS2_PLACEMENT_3D('',#1162,#950,#951);
#845=AXIS2_PLACEMENT_3D('',#1171,#956,#957);
#846=AXIS2_PLACEMENT_3D('',#1172,#958,#959);
#847=AXIS2_PLACEMENT_3D('',#1173,#960,#961);
#848=AXIS2_PLACEMENT_3D('',#1174,#962,#963);
#849=AXIS2_PLACEMENT_3D('',#1175,#964,#965);
#850=AXIS2_PLACEMENT_3D('',#1176,#966,#967);
#851=AXIS2_PLACEMENT_3D('',#1178,#968,#969);
#852=AXIS2_PLACEMENT_3D('',#1181,#971,#972);
#853=AXIS2_PLACEMENT_3D('',#1182,#973,#974);
#854=AXIS2_PLACEMENT_3D('',#1191,#979,#980);
#855=AXIS2_PLACEMENT_3D('',#1192,#981,#982);
#856=AXIS2_PLACEMENT_3D('',#1193,#983,#984);
#857=AXIS2_PLACEMENT_3D('',#1194,#985,#986);
#858=AXIS2_PLACEMENT_3D('',#1195,#987,#988);
#859=AXIS2_PLACEMENT_3D('',#1196,#989,#990);
#860=AXIS2_PLACEMENT_3D('',#1198,#991,#992);
#861=AXIS2_PLACEMENT_3D('',#1201,#994,#995);
#862=AXIS2_PLACEMENT_3D('',#1202,#996,#997);
#863=AXIS2_PLACEMENT_3D('',#1204,#998,#999);
#864=AXIS2_PLACEMENT_3D('',#1207,#1001,#1002);
#865=AXIS2_PLACEMENT_3D('',#1208,#1003,#1004);
#866=AXIS2_PLACEMENT_3D('',#1210,#1005,#1006);
#867=AXIS2_PLACEMENT_3D('',#1213,#1008,#1009);
#868=AXIS2_PLACEMENT_3D('',#1214,#1010,#1011);
#869=AXIS2_PLACEMENT_3D('',#1216,#1012,#1013);
#870=AXIS2_PLACEMENT_3D('',#1219,#1015,#1016);
#871=AXIS2_PLACEMENT_3D('',#1220,#1017,#1018);
#872=AXIS2_PLACEMENT_3D('',#1229,#1023,#1024);
#873=AXIS2_PLACEMENT_3D('',#1235,#1028,#1029);
#874=AXIS2_PLACEMENT_3D('',#1238,#1032,#1033);
#875=AXIS2_PLACEMENT_3D('',#1247,#1038,#1039);
#876=AXIS2_PLACEMENT_3D('',#1253,#1043,#1044);
#877=AXIS2_PLACEMENT_3D('',#1256,#1047,#1048);
#878=AXIS2_PLACEMENT_3D('',#1258,#1049,#1050);
#879=AXIS2_PLACEMENT_3D('',#1261,#1052,#1053);
#880=AXIS2_PLACEMENT_3D('',#1262,#1054,#1055);
#881=AXIS2_PLACEMENT_3D('',#1271,#1060,#1061);
#882=AXIS2_PLACEMENT_3D('',#1277,#1065,#1066);
#883=AXIS2_PLACEMENT_3D('',#1280,#1069,#1070);
#884=AXIS2_PLACEMENT_3D('',#1289,#1075,#1076);
#885=AXIS2_PLACEMENT_3D('',#1295,#1080,#1081);
#886=AXIS2_PLACEMENT_3D('',#1298,#1084,#1085);
#887=AXIS2_PLACEMENT_3D('',#1300,#1086,#1087);
#888=AXIS2_PLACEMENT_3D('',#1303,#1089,#1090);
#889=AXIS2_PLACEMENT_3D('',#1304,#1091,#1092);
#890=AXIS2_PLACEMENT_3D('',#1313,#1097,#1098);
#891=AXIS2_PLACEMENT_3D('',#1319,#1102,#1103);
#892=AXIS2_PLACEMENT_3D('',#1325,#1107,#1108);
#893=AXIS2_PLACEMENT_3D('',#1328,#1111,#1112);
#894=AXIS2_PLACEMENT_3D('',#1329,#1113,#1114);
#895=DIRECTION('axis',(0.,0.,1.));
#896=DIRECTION('refdir',(1.,0.,0.));
#897=DIRECTION('center_axis',(0.,0.,1.));
#898=DIRECTION('ref_axis',(1.,0.,0.));
#899=DIRECTION('center_axis',(0.,0.,-1.));
#900=DIRECTION('ref_axis',(1.,0.,0.));
#901=DIRECTION('',(0.,0.,-1.));
#902=DIRECTION('center_axis',(0.,0.,-1.));
#903=DIRECTION('ref_axis',(1.,0.,0.));
#904=DIRECTION('center_axis',(1.,0.,0.));
#905=DIRECTION('ref_axis',(0.,1.,0.));
#906=DIRECTION('',(0.,-1.,0.));
#907=DIRECTION('',(0.,0.,1.));
#908=DIRECTION('',(0.,1.,0.));
#909=DIRECTION('',(0.,0.,1.));
#910=DIRECTION('center_axis',(0.,0.,1.));
#911=DIRECTION('ref_axis',(-1.,1.38892301852667E-14,0.));
#912=DIRECTION('center_axis',(0.,0.,1.));
#913=DIRECTION('ref_axis',(1.,0.,0.));
#914=DIRECTION('center_axis',(0.,0.,1.));
#915=DIRECTION('ref_axis',(1.,0.,0.));
#916=DIRECTION('center_axis',(0.,0.,1.));
#917=DIRECTION('ref_axis',(1.,0.,0.));
#918=DIRECTION('center_axis',(0.,0.,1.));
#919=DIRECTION('ref_axis',(1.,0.,0.));
#920=DIRECTION('center_axis',(0.,0.,1.));
#921=DIRECTION('ref_axis',(1.,0.,0.));
#922=DIRECTION('center_axis',(0.,0.,-1.));
#923=DIRECTION('ref_axis',(1.,0.,0.));
#924=DIRECTION('',(0.,0.,-1.));
#925=DIRECTION('center_axis',(0.,0.,-1.));
#926=DIRECTION('ref_axis',(1.,0.,0.));
#927=DIRECTION('center_axis',(-1.,0.,0.));
#928=DIRECTION('ref_axis',(0.,-1.,0.));
#929=DIRECTION('',(0.,1.,0.));
#930=DIRECTION('',(0.,0.,1.));
#931=DIRECTION('',(0.,-1.,0.));
#932=DIRECTION('',(0.,0.,1.));
#933=DIRECTION('center_axis',(0.,0.,1.));
#934=DIRECTION('ref_axis',(1.,0.,0.));
#935=DIRECTION('center_axis',(0.,0.,1.));
#936=DIRECTION('ref_axis',(1.,0.,0.));
#937=DIRECTION('center_axis',(0.,0.,1.));
#938=DIRECTION('ref_axis',(1.,0.,0.));
#939=DIRECTION('center_axis',(0.,0.,1.));
#940=DIRECTION('ref_axis',(1.,0.,0.));
#941=DIRECTION('center_axis',(0.,0.,1.));
#942=DIRECTION('ref_axis',(1.,0.,0.));
#943=DIRECTION('center_axis',(0.,0.,1.));
#944=DIRECTION('ref_axis',(1.,0.,0.));
#945=DIRECTION('center_axis',(0.,0.,-1.));
#946=DIRECTION('ref_axis',(1.,0.,0.));
#947=DIRECTION('',(0.,0.,-1.));
#948=DIRECTION('center_axis',(0.,0.,-1.));
#949=DIRECTION('ref_axis',(1.,0.,0.));
#950=DIRECTION('center_axis',(1.,0.,0.));
#951=DIRECTION('ref_axis',(0.,1.,0.));
#952=DIRECTION('',(0.,-1.,0.));
#953=DIRECTION('',(0.,0.,1.));
#954=DIRECTION('',(0.,1.,0.));
#955=DIRECTION('',(0.,0.,1.));
#956=DIRECTION('center_axis',(0.,0.,1.));
#957=DIRECTION('ref_axis',(-1.,1.22464679914735E-16,0.));
#958=DIRECTION('center_axis',(0.,0.,1.));
#959=DIRECTION('ref_axis',(1.,0.,0.));
#960=DIRECTION('center_axis',(0.,0.,1.));
#961=DIRECTION('ref_axis',(1.,0.,0.));
#962=DIRECTION('center_axis',(0.,0.,1.));
#963=DIRECTION('ref_axis',(1.,0.,0.));
#964=DIRECTION('center_axis',(0.,0.,1.));
#965=DIRECTION('ref_axis',(1.,0.,0.));
#966=DIRECTION('center_axis',(0.,0.,1.));
#967=DIRECTION('ref_axis',(1.,0.,0.));
#968=DIRECTION('center_axis',(0.,0.,-1.));
#969=DIRECTION('ref_axis',(1.,0.,0.));
#970=DIRECTION('',(0.,0.,-1.));
#971=DIRECTION('center_axis',(0.,0.,-1.));
#972=DIRECTION('ref_axis',(1.,0.,0.));
#973=DIRECTION('center_axis',(-1.,0.,0.));
#974=DIRECTION('ref_axis',(0.,-1.,0.));
#975=DIRECTION('',(0.,1.,0.));
#976=DIRECTION('',(0.,0.,1.));
#977=DIRECTION('',(0.,-1.,0.));
#978=DIRECTION('',(0.,0.,1.));
#979=DIRECTION('center_axis',(0.,0.,1.));
#980=DIRECTION('ref_axis',(1.,0.,0.));
#981=DIRECTION('center_axis',(0.,0.,1.));
#982=DIRECTION('ref_axis',(1.,0.,0.));
#983=DIRECTION('center_axis',(0.,0.,1.));
#984=DIRECTION('ref_axis',(1.,0.,0.));
#985=DIRECTION('center_axis',(0.,0.,1.));
#986=DIRECTION('ref_axis',(1.,0.,0.));
#987=DIRECTION('center_axis',(0.,0.,1.));
#988=DIRECTION('ref_axis',(1.,0.,0.));
#989=DIRECTION('center_axis',(0.,0.,1.));
#990=DIRECTION('ref_axis',(1.,0.,0.));
#991=DIRECTION('center_axis',(0.,0.,1.));
#992=DIRECTION('ref_axis',(1.,0.,0.));
#993=DIRECTION('',(0.,0.,1.));
#994=DIRECTION('center_axis',(0.,0.,-1.));
#995=DIRECTION('ref_axis',(1.,0.,0.));
#996=DIRECTION('center_axis',(0.,0.,1.));
#997=DIRECTION('ref_axis',(1.,0.,0.));
#998=DIRECTION('center_axis',(0.,0.,1.));
#999=DIRECTION('ref_axis',(1.,0.,0.));
#1000=DIRECTION('',(0.,0.,1.));
#1001=DIRECTION('center_axis',(0.,0.,-1.));
#1002=DIRECTION('ref_axis',(1.,0.,0.));
#1003=DIRECTION('center_axis',(0.,0.,1.));
#1004=DIRECTION('ref_axis',(1.,0.,0.));
#1005=DIRECTION('center_axis',(0.,0.,-1.));
#1006=DIRECTION('ref_axis',(1.,0.,0.));
#1007=DIRECTION('',(0.,0.,-1.));
#1008=DIRECTION('center_axis',(0.,0.,-1.));
#1009=DIRECTION('ref_axis',(1.,0.,0.));
#1010=DIRECTION('center_axis',(0.,0.,1.));
#1011=DIRECTION('ref_axis',(1.,0.,0.));
#1012=DIRECTION('center_axis',(0.,0.,-1.));
#1013=DIRECTION('ref_axis',(1.,0.,0.));
#1014=DIRECTION('',(0.,0.,-1.));
#1015=DIRECTION('center_axis',(0.,0.,-1.));
#1016=DIRECTION('ref_axis',(1.,0.,0.));
#1017=DIRECTION('center_axis',(0.598551797061145,0.801084106842018,0.));
#1018=DIRECTION('ref_axis',(-0.801084106842018,0.598551797061145,0.));
#1019=DIRECTION('',(-0.801084106842018,0.598551797061145,0.));
#1020=DIRECTION('',(0.,0.,1.));
#1021=DIRECTION('',(-0.801084106842018,0.598551797061145,0.));
#1022=DIRECTION('',(0.,0.,1.));
#1023=DIRECTION('center_axis',(-0.598551797061145,0.801084106842018,0.));
#1024=DIRECTION('ref_axis',(-0.801084106842018,-0.598551797061145,0.));
#1025=DIRECTION('',(-0.801084106842018,-0.598551797061145,0.));
#1026=DIRECTION('',(-0.801084106842018,-0.598551797061145,0.));
#1027=DIRECTION('',(0.,0.,1.));
#1028=DIRECTION('center_axis',(0.,-1.,0.));
#1029=DIRECTION('ref_axis',(1.,0.,0.));
#1030=DIRECTION('',(1.,0.,0.));
#1031=DIRECTION('',(1.,0.,0.));
#1032=DIRECTION('center_axis',(-0.598733631485651,-0.800948212138591,0.));
#1033=DIRECTION('ref_axis',(0.800948212138591,-0.598733631485651,0.));
#1034=DIRECTION('',(0.800948212138591,-0.598733631485651,0.));
#1035=DIRECTION('',(0.,0.,1.));
#1036=DIRECTION('',(0.800948212138591,-0.598733631485651,0.));
#1037=DIRECTION('',(0.,0.,1.));
#1038=DIRECTION('center_axis',(1.,0.,0.));
#1039=DIRECTION('ref_axis',(0.,1.,0.));
#1040=DIRECTION('',(0.,1.,0.));
#1041=DIRECTION('',(0.,1.,0.));
#1042=DIRECTION('',(0.,0.,1.));
#1043=DIRECTION('center_axis',(-0.598551797061145,0.801084106842018,0.));
#1044=DIRECTION('ref_axis',(-0.801084106842018,-0.598551797061145,0.));
#1045=DIRECTION('',(-0.801084106842018,-0.598551797061145,0.));
#1046=DIRECTION('',(-0.801084106842018,-0.598551797061145,0.));
#1047=DIRECTION('center_axis',(0.,0.,1.));
#1048=DIRECTION('ref_axis',(1.,0.,0.));
#1049=DIRECTION('center_axis',(0.,0.,-1.));
#1050=DIRECTION('ref_axis',(1.,0.,0.));
#1051=DIRECTION('',(0.,0.,-1.));
#1052=DIRECTION('center_axis',(0.,0.,-1.));
#1053=DIRECTION('ref_axis',(1.,0.,0.));
#1054=DIRECTION('center_axis',(0.598551797061145,-0.801084106842018,0.));
#1055=DIRECTION('ref_axis',(0.801084106842018,0.598551797061145,0.));
#1056=DIRECTION('',(0.801084106842018,0.598551797061145,0.));
#1057=DIRECTION('',(0.,0.,1.));
#1058=DIRECTION('',(0.801084106842018,0.598551797061145,0.));
#1059=DIRECTION('',(0.,0.,1.));
#1060=DIRECTION('center_axis',(0.,1.,0.));
#1061=DIRECTION('ref_axis',(-1.,0.,0.));
#1062=DIRECTION('',(-1.,0.,0.));
#1063=DIRECTION('',(-1.,0.,0.));
#1064=DIRECTION('',(0.,0.,1.));
#1065=DIRECTION('center_axis',(-0.598733631485651,-0.800948212138591,0.));
#1066=DIRECTION('ref_axis',(0.800948212138591,-0.598733631485651,0.));
#1067=DIRECTION('',(0.800948212138591,-0.598733631485651,0.));
#1068=DIRECTION('',(0.800948212138591,-0.598733631485651,0.));
#1069=DIRECTION('center_axis',(0.598551797061145,0.801084106842018,0.));
#1070=DIRECTION('ref_axis',(-0.801084106842018,0.598551797061145,0.));
#1071=DIRECTION('',(-0.801084106842018,0.598551797061145,0.));
#1072=DIRECTION('',(0.,0.,1.));
#1073=DIRECTION('',(-0.801084106842018,0.598551797061145,0.));
#1074=DIRECTION('',(0.,0.,1.));
#1075=DIRECTION('center_axis',(-1.,0.,0.));
#1076=DIRECTION('ref_axis',(0.,-1.,0.));
#1077=DIRECTION('',(0.,-1.,0.));
#1078=DIRECTION('',(0.,-1.,0.));
#1079=DIRECTION('',(0.,0.,1.));
#1080=DIRECTION('center_axis',(0.598551797061145,-0.801084106842018,0.));
#1081=DIRECTION('ref_axis',(0.801084106842018,0.598551797061145,0.));
#1082=DIRECTION('',(0.801084106842018,0.598551797061145,0.));
#1083=DIRECTION('',(0.801084106842018,0.598551797061145,0.));
#1084=DIRECTION('center_axis',(0.,0.,1.));
#1085=DIRECTION('ref_axis',(1.,0.,0.));
#1086=DIRECTION('center_axis',(0.,0.,-1.));
#1087=DIRECTION('ref_axis',(1.,0.,0.));
#1088=DIRECTION('',(0.,0.,-1.));
#1089=DIRECTION('center_axis',(0.,0.,-1.));
#1090=DIRECTION('ref_axis',(1.,0.,0.));
#1091=DIRECTION('center_axis',(1.,0.,0.));
#1092=DIRECTION('ref_axis',(0.,1.,0.));
#1093=DIRECTION('',(0.,-1.,0.));
#1094=DIRECTION('',(0.,0.,1.));
#1095=DIRECTION('',(0.,1.,0.));
#1096=DIRECTION('',(0.,0.,1.));
#1097=DIRECTION('center_axis',(0.,-1.,0.));
#1098=DIRECTION('ref_axis',(1.,0.,0.));
#1099=DIRECTION('',(-1.,0.,0.));
#1100=DIRECTION('',(1.,0.,0.));
#1101=DIRECTION('',(0.,0.,1.));
#1102=DIRECTION('center_axis',(-1.,0.,0.));
#1103=DIRECTION('ref_axis',(0.,-1.,0.));
#1104=DIRECTION('',(0.,1.,0.));
#1105=DIRECTION('',(0.,-1.,0.));
#1106=DIRECTION('',(0.,0.,1.));
#1107=DIRECTION('center_axis',(0.,1.,0.));
#1108=DIRECTION('ref_axis',(-1.,0.,0.));
#1109=DIRECTION('',(1.,0.,0.));
#1110=DIRECTION('',(-1.,0.,0.));
#1111=DIRECTION('center_axis',(0.,0.,1.));
#1112=DIRECTION('ref_axis',(1.,0.,0.));
#1113=DIRECTION('center_axis',(0.,0.,1.));
#1114=DIRECTION('ref_axis',(1.,0.,0.));
#1115=CARTESIAN_POINT('',(0.,0.,0.));
#1116=CARTESIAN_POINT('Origin',(50.925,-38.05,0.));
#1117=CARTESIAN_POINT('',(49.525,-38.05,10.));
#1118=CARTESIAN_POINT('Origin',(50.925,-38.05,10.));
#1119=CARTESIAN_POINT('',(49.525,-38.05,0.));
#1120=CARTESIAN_POINT('',(49.525,-38.05,0.));
#1121=CARTESIAN_POINT('Origin',(50.925,-38.05,0.));
#1122=CARTESIAN_POINT('Origin',(54.835,-38.8937416666256,0.));
#1123=CARTESIAN_POINT('',(54.835,-37.2062583333745,0.));
#1124=CARTESIAN_POINT('',(54.835,-38.8937416666256,0.));
#1125=CARTESIAN_POINT('',(54.835,42.15,0.));
#1126=CARTESIAN_POINT('',(54.835,-37.2062583333745,10.));
#1127=CARTESIAN_POINT('',(54.835,-37.2062583333745,0.));
#1128=CARTESIAN_POINT('',(54.835,-38.8937416666256,10.));
#1129=CARTESIAN_POINT('',(54.835,42.15,10.));
#1130=CARTESIAN_POINT('',(54.835,-38.8937416666256,0.));
#1131=CARTESIAN_POINT('Origin',(50.925,-38.05,0.));
#1132=CARTESIAN_POINT('Origin',(50.925,-38.05,0.));
#1133=CARTESIAN_POINT('Origin',(50.925,-38.05,10.));
#1134=CARTESIAN_POINT('Origin',(50.88,-38.05,10.));
#1135=CARTESIAN_POINT('Origin',(50.88,-38.05,0.));
#1136=CARTESIAN_POINT('Origin',(-50.925,-38.05,0.));
#1137=CARTESIAN_POINT('',(-52.325,-38.05,10.));
#1138=CARTESIAN_POINT('Origin',(-50.925,-38.05,10.));
#1139=CARTESIAN_POINT('',(-52.325,-38.05,0.));
#1140=CARTESIAN_POINT('',(-52.325,-38.05,0.));
#1141=CARTESIAN_POINT('Origin',(-50.925,-38.05,0.));
#1142=CARTESIAN_POINT('Origin',(-54.835,-37.2062583333745,0.));
#1143=CARTESIAN_POINT('',(-54.835,-38.8937416666255,0.));
#1144=CARTESIAN_POINT('',(-54.835,-37.2062583333745,0.));
#1145=CARTESIAN_POINT('',(-54.835,-42.15,0.));
#1146=CARTESIAN_POINT('',(-54.835,-38.8937416666255,10.));
#1147=CARTESIAN_POINT('',(-54.835,-38.8937416666255,0.));
#1148=CARTESIAN_POINT('',(-54.835,-37.2062583333745,10.));
#1149=CARTESIAN_POINT('',(-54.835,-42.15,10.));
#1150=CARTESIAN_POINT('',(-54.835,-37.2062583333745,0.));
#1151=CARTESIAN_POINT('Origin',(-50.925,-38.05,0.));
#1152=CARTESIAN_POINT('Origin',(-50.925,-38.05,0.));
#1153=CARTESIAN_POINT('Origin',(-50.925,-38.05,10.));
#1154=CARTESIAN_POINT('Origin',(-50.88,-38.05,10.));
#1155=CARTESIAN_POINT('Origin',(-50.88,-38.05,0.));
#1156=CARTESIAN_POINT('Origin',(50.925,38.05,0.));
#1157=CARTESIAN_POINT('',(49.525,38.05,10.));
#1158=CARTESIAN_POINT('Origin',(50.925,38.05,10.));
#1159=CARTESIAN_POINT('',(49.525,38.05,0.));
#1160=CARTESIAN_POINT('',(49.525,38.05,0.));
#1161=CARTESIAN_POINT('Origin',(50.925,38.05,0.));
#1162=CARTESIAN_POINT('Origin',(54.835,37.2062583333745,0.));
#1163=CARTESIAN_POINT('',(54.835,38.8937416666255,0.));
#1164=CARTESIAN_POINT('',(54.835,37.2062583333745,0.));
#1165=CARTESIAN_POINT('',(54.835,42.15,0.));
#1166=CARTESIAN_POINT('',(54.835,38.8937416666255,10.));
#1167=CARTESIAN_POINT('',(54.835,38.8937416666255,0.));
#1168=CARTESIAN_POINT('',(54.835,37.2062583333745,10.));
#1169=CARTESIAN_POINT('',(54.835,42.15,10.));
#1170=CARTESIAN_POINT('',(54.835,37.2062583333745,0.));
#1171=CARTESIAN_POINT('Origin',(50.925,38.05,0.));
#1172=CARTESIAN_POINT('Origin',(50.925,38.05,0.));
#1173=CARTESIAN_POINT('Origin',(50.925,38.05,10.));
#1174=CARTESIAN_POINT('Origin',(50.88,38.05,10.));
#1175=CARTESIAN_POINT('Origin',(50.88,38.05,0.));
#1176=CARTESIAN_POINT('Origin',(-50.925,38.05,0.));
#1177=CARTESIAN_POINT('',(-52.325,38.05,10.));
#1178=CARTESIAN_POINT('Origin',(-50.925,38.05,10.));
#1179=CARTESIAN_POINT('',(-52.325,38.05,0.));
#1180=CARTESIAN_POINT('',(-52.325,38.05,0.));
#1181=CARTESIAN_POINT('Origin',(-50.925,38.05,0.));
#1182=CARTESIAN_POINT('Origin',(-54.835,38.8937416666257,0.));
#1183=CARTESIAN_POINT('',(-54.835,37.2062583333744,0.));
#1184=CARTESIAN_POINT('',(-54.835,38.8937416666257,0.));
#1185=CARTESIAN_POINT('',(-54.835,-42.15,0.));
#1186=CARTESIAN_POINT('',(-54.835,37.2062583333744,10.));
#1187=CARTESIAN_POINT('',(-54.835,37.2062583333744,0.));
#1188=CARTESIAN_POINT('',(-54.835,38.8937416666257,10.));
#1189=CARTESIAN_POINT('',(-54.835,-42.15,10.));
#1190=CARTESIAN_POINT('',(-54.835,38.8937416666257,0.));
#1191=CARTESIAN_POINT('Origin',(-50.925,38.05,0.));
#1192=CARTESIAN_POINT('Origin',(-50.925,38.05,0.));
#1193=CARTESIAN_POINT('Origin',(-50.925,38.05,10.));
#1194=CARTESIAN_POINT('Origin',(-50.88,38.05,10.));
#1195=CARTESIAN_POINT('Origin',(-50.88,38.05,0.));
#1196=CARTESIAN_POINT('Origin',(0.,38.05,0.));
#1197=CARTESIAN_POINT('',(-1.75,38.05,0.));
#1198=CARTESIAN_POINT('Origin',(0.,38.05,0.));
#1199=CARTESIAN_POINT('',(-1.75,38.05,3.));
#1200=CARTESIAN_POINT('',(-1.75,38.05,0.));
#1201=CARTESIAN_POINT('Origin',(0.,38.05,3.));
#1202=CARTESIAN_POINT('Origin',(0.,-38.05,0.));
#1203=CARTESIAN_POINT('',(-1.75,-38.05,0.));
#1204=CARTESIAN_POINT('Origin',(0.,-38.05,0.));
#1205=CARTESIAN_POINT('',(-1.75,-38.05,3.));
#1206=CARTESIAN_POINT('',(-1.75,-38.05,0.));
#1207=CARTESIAN_POINT('Origin',(0.,-38.05,3.));
#1208=CARTESIAN_POINT('Origin',(50.925,38.05,0.));
#1209=CARTESIAN_POINT('',(49.525,38.05,3.));
#1210=CARTESIAN_POINT('Origin',(50.925,38.05,3.));
#1211=CARTESIAN_POINT('',(49.525,38.05,0.));
#1212=CARTESIAN_POINT('',(49.525,38.05,0.));
#1213=CARTESIAN_POINT('Origin',(50.925,38.05,0.));
#1214=CARTESIAN_POINT('Origin',(-50.925,-38.05,0.));
#1215=CARTESIAN_POINT('',(-52.325,-38.05,3.));
#1216=CARTESIAN_POINT('Origin',(-50.925,-38.05,3.));
#1217=CARTESIAN_POINT('',(-52.325,-38.05,0.));
#1218=CARTESIAN_POINT('',(-52.325,-38.05,0.));
#1219=CARTESIAN_POINT('Origin',(-50.925,-38.05,0.));
#1220=CARTESIAN_POINT('Origin',(-8.88178419700125E-15,4.99323350174621,
0.));
#1221=CARTESIAN_POINT('',(0.,4.9932335017462,0.));
#1222=CARTESIAN_POINT('',(-38.8887209966774,34.05,0.));
#1223=CARTESIAN_POINT('',(53.3192071421039,-34.8456635381567,0.));
#1224=CARTESIAN_POINT('',(-38.8887209966774,34.05,3.));
#1225=CARTESIAN_POINT('',(-38.8887209966774,34.05,0.));
#1226=CARTESIAN_POINT('',(0.,4.9932335017462,3.));
#1227=CARTESIAN_POINT('',(53.3192071421039,-34.8456635381567,3.));
#1228=CARTESIAN_POINT('',(0.,4.9932335017462,0.));
#1229=CARTESIAN_POINT('Origin',(38.8887209966774,34.05,0.));
#1230=CARTESIAN_POINT('',(38.8887209966774,34.05,0.));
#1231=CARTESIAN_POINT('',(48.5307927915031,41.254336412236,0.));
#1232=CARTESIAN_POINT('',(38.8887209966774,34.05,3.));
#1233=CARTESIAN_POINT('',(48.5307927915031,41.254336412236,3.));
#1234=CARTESIAN_POINT('',(38.8887209966774,34.05,0.));
#1235=CARTESIAN_POINT('Origin',(-38.8887209966774,34.05,0.));
#1236=CARTESIAN_POINT('',(-50.925,34.05,0.));
#1237=CARTESIAN_POINT('',(-50.925,34.05,3.));
#1238=CARTESIAN_POINT('Origin',(-50.925,33.0919533788208,0.));
#1239=CARTESIAN_POINT('',(-50.925,33.0919533788208,0.));
#1240=CARTESIAN_POINT('',(-6.66972784524473,0.00976478281517146,0.));
#1241=CARTESIAN_POINT('',(-53.6868242556682,35.1565026730957,0.));
#1242=CARTESIAN_POINT('',(-6.66972784524473,0.00976478281517146,3.));
#1243=CARTESIAN_POINT('',(-6.66972784524473,0.00976478281517146,0.));
#1244=CARTESIAN_POINT('',(-50.925,33.0919533788208,3.));
#1245=CARTESIAN_POINT('',(-53.6868242556682,35.1565026730957,3.));
#1246=CARTESIAN_POINT('',(-50.925,33.0919533788208,0.));
#1247=CARTESIAN_POINT('Origin',(-50.925,-33.0567664982538,0.));
#1248=CARTESIAN_POINT('',(-50.925,-33.0567664982538,0.));
#1249=CARTESIAN_POINT('',(-50.925,-34.05,0.));
#1250=CARTESIAN_POINT('',(-50.925,-33.0567664982538,3.));
#1251=CARTESIAN_POINT('',(-50.925,-34.05,3.));
#1252=CARTESIAN_POINT('',(-50.925,-33.0567664982538,0.));
#1253=CARTESIAN_POINT('Origin',(-6.66972784524474,0.00976478281517146,0.));
#1254=CARTESIAN_POINT('',(48.5307927915031,41.254336412236,0.));
#1255=CARTESIAN_POINT('',(48.5307927915031,41.254336412236,3.));
#1256=CARTESIAN_POINT('Origin',(50.925,-38.05,0.));
#1257=CARTESIAN_POINT('',(49.525,-38.05,3.));
#1258=CARTESIAN_POINT('Origin',(50.925,-38.05,3.));
#1259=CARTESIAN_POINT('',(49.525,-38.05,0.));
#1260=CARTESIAN_POINT('',(49.525,-38.05,0.));
#1261=CARTESIAN_POINT('Origin',(50.925,-38.05,0.));
#1262=CARTESIAN_POINT('Origin',(-38.8887209966774,-34.05,0.));
#1263=CARTESIAN_POINT('',(-38.8887209966774,-34.05,0.));
#1264=CARTESIAN_POINT('',(0.0114870887000151,-4.9846506107293,0.));
#1265=CARTESIAN_POINT('',(53.3192071882446,34.8456635726319,0.));
#1266=CARTESIAN_POINT('',(0.0114870887000151,-4.98465061072931,3.));
#1267=CARTESIAN_POINT('',(0.0114870887000151,-4.9846506107293,0.));
#1268=CARTESIAN_POINT('',(-38.8887209966774,-34.05,3.));
#1269=CARTESIAN_POINT('',(53.3192071882446,34.8456635726319,3.));
#1270=CARTESIAN_POINT('',(-38.8887209966774,-34.05,0.));
#1271=CARTESIAN_POINT('Origin',(38.8932842757982,-34.05,0.));
#1272=CARTESIAN_POINT('',(38.8932842757982,-34.05,0.));
#1273=CARTESIAN_POINT('',(50.925,-34.05,0.));
#1274=CARTESIAN_POINT('',(38.8932842757982,-34.05,3.));
#1275=CARTESIAN_POINT('',(50.925,-34.05,3.));
#1276=CARTESIAN_POINT('',(38.8932842757982,-34.05,0.));
#1277=CARTESIAN_POINT('Origin',(0.0114870887000151,-4.9846506107293,0.));
#1278=CARTESIAN_POINT('',(-53.6868242556682,35.1565026730957,0.));
#1279=CARTESIAN_POINT('',(-53.6868242556682,35.1565026730957,3.));
#1280=CARTESIAN_POINT('Origin',(50.925,-33.0567664982538,0.));
#1281=CARTESIAN_POINT('',(50.925,-33.0567664982538,0.));
#1282=CARTESIAN_POINT('',(6.68279674313864,0.,0.));
#1283=CARTESIAN_POINT('',(53.3192071421039,-34.8456635381567,0.));
#1284=CARTESIAN_POINT('',(6.68279674313864,0.,3.));
#1285=CARTESIAN_POINT('',(6.68279674313864,0.,0.));
#1286=CARTESIAN_POINT('',(50.925,-33.0567664982538,3.));
#1287=CARTESIAN_POINT('',(53.3192071421039,-34.8456635381567,3.));
#1288=CARTESIAN_POINT('',(50.925,-33.0567664982538,0.));
#1289=CARTESIAN_POINT('Origin',(50.925,33.0567664982538,0.));
#1290=CARTESIAN_POINT('',(50.925,33.0567664982538,0.));
#1291=CARTESIAN_POINT('',(50.925,34.05,0.));
#1292=CARTESIAN_POINT('',(50.925,33.0567664982538,3.));
#1293=CARTESIAN_POINT('',(50.925,34.05,3.));
#1294=CARTESIAN_POINT('',(50.925,33.0567664982538,0.));
#1295=CARTESIAN_POINT('Origin',(6.68279674313865,0.,0.));
#1296=CARTESIAN_POINT('',(53.3192071882446,34.8456635726319,0.));
#1297=CARTESIAN_POINT('',(53.3192071882446,34.8456635726319,3.));
#1298=CARTESIAN_POINT('Origin',(-50.925,38.05,0.));
#1299=CARTESIAN_POINT('',(-52.325,38.05,3.));
#1300=CARTESIAN_POINT('Origin',(-50.925,38.05,3.));
#1301=CARTESIAN_POINT('',(-52.325,38.05,0.));
#1302=CARTESIAN_POINT('',(-52.325,38.05,0.));
#1303=CARTESIAN_POINT('Origin',(-50.925,38.05,0.));
#1304=CARTESIAN_POINT('Origin',(54.835,-42.15,0.));
#1305=CARTESIAN_POINT('',(54.835,42.15,0.));
#1306=CARTESIAN_POINT('',(54.835,-42.15,0.));
#1307=CARTESIAN_POINT('',(54.835,42.15,0.));
#1308=CARTESIAN_POINT('',(54.835,42.15,3.));
#1309=CARTESIAN_POINT('',(54.835,42.15,0.));
#1310=CARTESIAN_POINT('',(54.835,-42.15,3.));
#1311=CARTESIAN_POINT('',(54.835,42.15,3.));
#1312=CARTESIAN_POINT('',(54.835,-42.15,0.));
#1313=CARTESIAN_POINT('Origin',(-54.835,-42.15,0.));
#1314=CARTESIAN_POINT('',(-54.835,-42.15,0.));
#1315=CARTESIAN_POINT('',(54.835,-42.15,0.));
#1316=CARTESIAN_POINT('',(-54.835,-42.15,3.));
#1317=CARTESIAN_POINT('',(54.835,-42.15,3.));
#1318=CARTESIAN_POINT('',(-54.835,-42.15,0.));
#1319=CARTESIAN_POINT('Origin',(-54.835,42.15,0.));
#1320=CARTESIAN_POINT('',(-54.835,42.15,0.));
#1321=CARTESIAN_POINT('',(-54.835,-42.15,0.));
#1322=CARTESIAN_POINT('',(-54.835,42.15,3.));
#1323=CARTESIAN_POINT('',(-54.835,-42.15,3.));
#1324=CARTESIAN_POINT('',(-54.835,42.15,0.));
#1325=CARTESIAN_POINT('Origin',(54.835,42.15,0.));
#1326=CARTESIAN_POINT('',(-54.835,42.15,0.));
#1327=CARTESIAN_POINT('',(-54.835,42.15,3.));
#1328=CARTESIAN_POINT('Origin',(0.,0.,3.));
#1329=CARTESIAN_POINT('Origin',(0.,0.,0.));
#1330=UNCERTAINTY_MEASURE_WITH_UNIT(LENGTH_MEASURE(0.01),#1334,
'DISTANCE_ACCURACY_VALUE',
'Maximum model space distance between geometric entities at asserted c
onnectivities');
#1331=UNCERTAINTY_MEASURE_WITH_UNIT(LENGTH_MEASURE(0.01),#1334,
'DISTANCE_ACCURACY_VALUE',
'Maximum model space distance between geometric entities at asserted c
onnectivities');
#1332=(
GEOMETRIC_REPRESENTATION_CONTEXT(3)
GLOBAL_UNCERTAINTY_ASSIGNED_CONTEXT((#1330))
GLOBAL_UNIT_ASSIGNED_CONTEXT((#1334,#1336,#1337))
REPRESENTATION_CONTEXT('','3D')
);
#1333=(
GEOMETRIC_REPRESENTATION_CONTEXT(3)
GLOBAL_UNCERTAINTY_ASSIGNED_CONTEXT((#1331))
GLOBAL_UNIT_ASSIGNED_CONTEXT((#1334,#1336,#1337))
REPRESENTATION_CONTEXT('','3D')
);
#1334=(
LENGTH_UNIT()
NAMED_UNIT(*)
SI_UNIT(.MILLI.,.METRE.)
);
#1335=(
LENGTH_UNIT()
NAMED_UNIT(*)
SI_UNIT($,.METRE.)
);
#1336=(
NAMED_UNIT(*)
PLANE_ANGLE_UNIT()
SI_UNIT($,.RADIAN.)
);
#1337=(
NAMED_UNIT(*)
SI_UNIT($,.STERADIAN.)
SOLID_ANGLE_UNIT()
);
#1338=SHAPE_DEFINITION_REPRESENTATION(#1339,#1340);
#1339=PRODUCT_DEFINITION_SHAPE('',$,#1342);
#1340=SHAPE_REPRESENTATION('',(#822),#1332);
#1341=PRODUCT_DEFINITION_CONTEXT('part definition',#1346,'design');
#1342=PRODUCT_DEFINITION('Mainboard Mount','Mainboard Mount v1',#1343,#1341);
#1343=PRODUCT_DEFINITION_FORMATION('',$,#1348);
#1344=PRODUCT_RELATED_PRODUCT_CATEGORY('Mainboard Mount v1',
'Mainboard Mount v1',(#1348));
#1345=APPLICATION_PROTOCOL_DEFINITION('international standard',
'automotive_design',2009,#1346);
#1346=APPLICATION_CONTEXT(
'Core Data for Automotive Mechanical Design Process');
#1347=PRODUCT_CONTEXT('part definition',#1346,'mechanical');
#1348=PRODUCT('Mainboard Mount','Mainboard Mount v1',$,(#1347));
#1349=PRESENTATION_STYLE_ASSIGNMENT((#1350));
#1350=SURFACE_STYLE_USAGE(.BOTH.,#1351);
#1351=SURFACE_SIDE_STYLE('',(#1352));
#1352=SURFACE_STYLE_FILL_AREA(#1353);
#1353=FILL_AREA_STYLE('Steel - Satin',(#1354));
#1354=FILL_AREA_STYLE_COLOUR('Steel - Satin',#1355);
#1355=COLOUR_RGB('Steel - Satin',0.627450980392157,0.627450980392157,0.627450980392157);
ENDSEC;
END-ISO-10303-21;
